Investigating missing data using areal-level estimates
…
Univariate analysis

Having preprocessed the data, variable selection proceeds by undertaking univariate analysis by contingency table chi-square testing on factors. We subset the data to 5,000 observations to reduce the sensitivity to small effects.

factors <- data.recoded %>% st_drop_geometry() %>% dplyr::select(where(is.factor))  %>% colnames() 
data.sample <- data.recoded %>% slice_sample(n=5000)
tables=factors %>% map(~table(data.sample$imputed,data.sample[[.x]],
                    exclude=c('-10',NA,'DNA')) %>% {.[,marginSums(.,2)>0]})

p.value <- tables %>%  map_dbl(~ chisq.test(.x) %>% {.$p.value})
odds.ratio <- tables %>% map_dbl(~prop.table(.x,2) %>% {.[1,]/.[2,]} %>% {(max(.,na.rm=TRUE)/min(.,na.rm=TRUE))})
univariate.factors <- tibble(factors,p.value,odds.ratio) %>% {.[order(p.value>0.05,-odds.ratio),]}
univariate.factors

## # A tibble: 27 x 3
##    factors                 p.value odds.ratio
##    <chr>                     <dbl>      <dbl>
##  1 HHoldOAClass2011_B01ID 3.72e- 2     Inf   
##  2 HHoldOAClass2011_B02ID 4.14e- 2     Inf   
##  3 HHoldStruct_B01ID      1.11e-13     Inf   
##  4 Settlement2011EW_B01ID 3.56e- 2     Inf   
##  5 HRPSEG_B01ID           4.00e- 6       8.08
##  6 Ten1_B01ID             4.79e-10       4.86
##  7 AddressType_B01ID      4.44e- 3       3.63
##  8 HHoldStruct_B03ID      1.88e-19       3.08
##  9 HRPWorkStat_B01ID      2.54e- 8       2.99
## 10 ONSACGrp_B01ID         4.14e- 2       2.42
## #  with 17 more rows
…
Reducing the model

data <- data.recoded %>% dplyr::select(!starts_with('ONSAC')) %>% dplyr::select(-c(BlueBdg_B01ID,ConcTravFare_B01ID,IMD2010,SettlementEW_B01ID,HRPSIC2007_B02ID)) %>% mutate(across(where(is.factor),~factor(replace(.x, .x == "-10", NA)))) %>% na.omit()

To undertake a multivariate analysis it is firstly necessary to clean the data set to remove partial cases - these typically relate to the change over time of recorded information (coded as -10 in the data when a question was not asked). As part of this we remove insignificant features with a high number of missing results. NB: ONSAC. groupings are a geodemographic variable superceded by HHoldOAClass2011 since 2014. We use the latter only. This reduces the data set size to 18011 observations.

An initial model is produced using all significant factors identified in the univariate analysis above, (plus gender even though it was not a significant univariate), using the coarsest possible bandings where there is a choice of granularity. 15 factors in total. A number of variables were removed on the basis that they heavily overlap with other variables, picking the coarsest possible grouping available. For example, household income was excluded to prefer UA income, and factors relating to household structure were excluded in preference to age, number of adults and number of children.

initial.factors <- c(c('HHoldNumAdults','age_band','HHoldNumChildren','income','SurveyYear'),
                    c("HRPSEG_B01ID","HRPEmpStat_B01ID","Ten1_B01ID","HHoldOAClass2011_B03ID","HRPWorkStat_B01ID","Settlement2011EW_B01ID","CarPool_B01ID","HHoldAreaType2_B02ID","AddressType_B01ID","gender"))      
f <- as.formula(paste0('imputed ~',paste(initial.factors,collapse= " + ")))
full.model <- glm(f, data = data, family = binomial)
print(broom::tidy(full.model))

## # A tibble: 68 x 5
##    term                         estimate std.error statistic  p.value
##    <chr>                           <dbl>     <dbl>     <dbl>    <dbl>
##  1 (Intercept)                 -70.4      45.7         -1.54 1.23e- 1
##  2 HHoldNumAdults                0.307     0.0233      13.2  1.05e-39
##  3 age_band                      0.142     0.0158       9.00 2.18e-19
##  4 HHoldNumChildren              0.0458    0.0240       1.91 5.62e- 2
##  5 income                        0.00322   0.00246      1.31 1.90e- 1
##  6 SurveyYear                    0.0342    0.0227       1.51 1.31e- 1
##  7 HRPSEG_B01IDEmployer: large  -0.688     0.425       -1.62 1.05e- 1
##  8 HRPSEG_B01IDManager: large   -0.878     0.174       -5.05 4.39e- 7
##  9 HRPSEG_B01IDEmployer: small  -0.281     0.150       -1.87 6.10e- 2
## 10 HRPSEG_B01IDManager: small   -0.831     0.191       -4.36 1.33e- 5
## #  with 58 more rows
…
print(broom::tidy(main.model))

## # A tibble: 30 x 5
##    term                                                     estimate std.error statistic  p.value
##    <chr>                                                       <dbl>     <dbl>     <dbl>    <dbl>
##  1 (Intercept)                                             -1.60       0.186      -8.59  8.52e-18
##  2 HHoldNumAdults                                           0.340      0.0222     15.3   1.17e-52
##  3 age_band                                                 0.138      0.0155      8.90  5.55e-19
##  4 HHoldNumChildren                                         0.0471     0.0239      1.97  4.86e- 2
##  5 income                                                   0.000906   0.00230     0.394 6.94e- 1
##  6 HRPEmpStat_B01IDEmployed manager                        -0.374      0.0778     -4.81  1.55e- 6
##  7 HRPEmpStat_B01IDOther employee                          -0.274      0.0527     -5.20  2.02e- 7
##  8 HRPEmpStat_B01IDNever worked                             0.520      0.108       4.82  1.41e- 6
##  9 Ten1_B01IDBuying it with the help of a mortgage or loan -0.180      0.0557     -3.23  1.24e- 3
## 10 Ten1_B01IDPart own and part rent                        -0.291      0.256      -1.14  2.55e- 1
## #  with 20 more rows

While the remaining factor variables in the model are significant, many of the factor levels have similar effects and hence factors are recoded to merge similar effects. Number of children is split into an indicator for having children and a separate variable for the number of children. Upon refitting the model, children is no longer a significant indicator, and Tenancy type and Address Type are removed because of their unclear causal links with response and the potential for interactions with other features.A log transform is taken for income given typical income distribution skew. A reduced model is considered which removes HHoldAreaType2_B02ID as geographic indicator, to compare the effect on the income coefficient.

data.recoded2 <- data.recoded
data.recoded2$children <- (data.recoded2$HHoldNumChildren>0)
levels(data.recoded2$HRPWorkStat_B01ID) <- c("Working","Working","Other non-working","Retired/Permanently Sick","Other non-working","Other non-working","Other non-working")
levels(data.recoded2$AddressType_B01ID) <- c("House / bungalow (detached)","House / bungalow (semi-detached)","House / bungalow (terrace / end terrace)", "Other",
                                            "Flat","Flat","Flat","Other")
data <- data.recoded2 %>% st_drop_geometry() %>% dplyr::select(!starts_with('ONSAC')) %>% dplyr::select(-c(BlueBdg_B01ID,ConcTravFare_B01ID,IMD2010,SettlementEW_B01ID,HRPSIC2007_B02ID)) %>% mutate(across(where(is.factor),~factor(replace(.x, .x == "-10", NA)))) %>% na.omit()
main.model <- glm(main.model$formula,data=data,family=binomial)
main.model <- update(main.model,.~. + children)
print(broom::tidy(full.model))

## # A tibble: 68 x 5
##    term                         estimate std.error statistic  p.value
##    <chr>                           <dbl>     <dbl>     <dbl>    <dbl>
##  1 (Intercept)                 -70.4      45.7         -1.54 1.23e- 1
##  2 HHoldNumAdults                0.307     0.0233      13.2  1.05e-39
##  3 age_band                      0.142     0.0158       9.00 2.18e-19
##  4 HHoldNumChildren              0.0458    0.0240       1.91 5.62e- 2
##  5 income                        0.00322   0.00246      1.31 1.90e- 1
##  6 SurveyYear                    0.0342    0.0227       1.51 1.31e- 1
##  7 HRPSEG_B01IDEmployer: large  -0.688     0.425       -1.62 1.05e- 1
##  8 HRPSEG_B01IDManager: large   -0.878     0.174       -5.05 4.39e- 7
##  9 HRPSEG_B01IDEmployer: small  -0.281     0.150       -1.87 6.10e- 2
## 10 HRPSEG_B01IDManager: small   -0.831     0.191       -4.36 1.33e- 5
## #  with 58 more rows
…
full.model <- update(full.model,.~. - income + log(income) - children -HHoldNumChildren - Ten1_B01ID - AddressType_B01ID)
print(broom::tidy(full.model))

## # A tibble: 54 x 5
##    term                                    estimate std.error statistic  p.value
##    <chr>                                      <dbl>     <dbl>     <dbl>    <dbl>
##  1 (Intercept)                             -73.4      45.6        -1.61 1.07e- 1
##  2 HHoldNumAdults                            0.307     0.0227     13.5  1.27e-41
##  3 age_band                                  0.149     0.0140     10.6  1.79e-26
##  4 SurveyYear                                0.0354    0.0226      1.57 1.17e- 1
##  5 HRPSEG_B01IDEmployer: large              -0.614     0.423      -1.45 1.46e- 1
##  6 HRPSEG_B01IDManager: large               -0.836     0.172      -4.86 1.15e- 6
##  7 HRPSEG_B01IDEmployer: small              -0.261     0.148      -1.76 7.81e- 2
##  8 HRPSEG_B01IDManager: small               -0.799     0.189      -4.22 2.40e- 5
##  9 HRPSEG_B01IDProfessional: self employed  -0.992     0.188      -5.29 1.22e- 7
## 10 HRPSEG_B01IDProfessional: employee       -1.01      0.172      -5.90 3.72e- 9
## #  with 44 more rows

reduced.model <- update(full.model,.~ .-HHoldAreaType2_B02ID)
print(broom::tidy(reduced.model))

## # A tibble: 48 x 5
##    term                                    estimate std.error statistic  p.value
##    <chr>                                      <dbl>     <dbl>     <dbl>    <dbl>
##  1 (Intercept)                             -70.5      45.4        -1.55 1.20e- 1
##  2 HHoldNumAdults                            0.312     0.0226     13.8  2.29e-43
##  3 age_band                                  0.152     0.0140     10.8  2.00e-27
##  4 SurveyYear                                0.0332    0.0225      1.47 1.40e- 1
##  5 HRPSEG_B01IDEmployer: large              -0.638     0.421      -1.52 1.29e- 1
##  6 HRPSEG_B01IDManager: large               -0.852     0.171      -4.98 6.52e- 7
##  7 HRPSEG_B01IDEmployer: small              -0.281     0.147      -1.90 5.70e- 2
##  8 HRPSEG_B01IDManager: small               -0.820     0.188      -4.35 1.35e- 5
##  9 HRPSEG_B01IDProfessional: self employed  -1.02      0.187      -5.44 5.30e- 8
## 10 HRPSEG_B01IDProfessional: employee       -1.03      0.171      -6.02 1.70e- 9
## #  with 38 more rows
…
